{
  "name": "全本小说网",
  "url": "www.qb5.tw",
  "version": 103,
  "search": {
    "url": "https://www.qb5.tw/modules/article/search.php?searchkey=${key}",
    "charset": "GBK",
    "list": "#main > table > tbody > tr",
    "name": "td:nth-child(1) > a",
    "author": "td:nth-child(3)",
    "cover": "img",
    "detail": "td:nth-child(1) > a"
  },
  "detail": {
    "summary": "meta[property=og:description]@attr->content",
    "status": "meta[property=og:novel:status]@attr->content",
    "category": "meta[property=og:novel:category]@attr->content",
    "update": "meta[property=og:novel:update_time]@attr->content",
    "lastChapter": "meta[property=og:novel:latest_chapter_name]@attr->content",
    "catalog": ""
  },
  "catalog": {
    "list": "dl.zjlist > dd",
    "name": "a",
    "chapter": "a"
  },
  "chapter": {
    "content": "#content",
    "purify": [
      "全本小说网.*最新章节！"
    ]
  }
}